[IP];[Description];[Source];
10.102.115.125;BON-ECAT741_aBCF02-TA4b-Ref(10.102.115.125);traceserver
10.102.115.126;BON-ECAT741_aBCF02-TA4b-Ref(10.102.115.126);traceserver
"2003:0004:EE03:2009:022C:73FF:FE00:001D;diversifEyeSIPUA;	OSIX					"
"2003:0004:EE03:2673:022C:73FF:FE00:001E;diversifEyeSIPUA;	OSIX					"

